{
    "9639": {
        "scan5_bcm1flumi": [
            {
                "1017": 1.864438127086032e-06,
                "102": 1.7801765125113888e-06,
                "1038": 1.788518261491845e-06,
                "1059": 1.7592522453924176e-06,
                "1080": 1.9745373947444024e-06,
                "1101": 1.8318369484404683e-06,
                "1122": 1.8349003767070827e-06,
                "1143": 1.9093210084974998e-06,
                "1164": 1.8117935042027965e-06,
                "1196": 1.6985589581963722e-06,
                "1217": 1.8860724139813101e-06,
                "123": 1.9038483742406243e-06,
                "1238": 1.8242062878925935e-06,
                "1259": 1.8706471792029333e-06,
                "1280": 1.6845427126099822e-06,
                "1301": 1.893772878247546e-06,
                "1322": 1.6830050526550622e-06,
                "1343": 1.8023982192971744e-06,
                "1375": 1.704832106952381e-06,
                "1396": 1.7591436517250258e-06,
                "1417": 1.8736868014457287e-06,
                "1438": 1.8768222844300908e-06,
                "144": 1.762800025062461e-06,
                "1459": 1.757487189024687e-06,
                "1480": 1.7915394209921943e-06,
                "1501": 1.7141356693173294e-06,
                "1522": 1.8023510619968874e-06,
                "1554": 1.8503563524063793e-06,
                "1575": 1.7808627717386116e-06,
                "1596": 1.9094387880613794e-06,
                "1617": 1.8922491790362984e-06,
                "1638": 1.6892103985810537e-06,
                "165": 1.968676019714621e-06,
                "1659": 1.9215095790059422e-06,
                "1680": 1.8039319911622442e-06,
                "1701": 1.8349129959460698e-06,
                "1733": 1.7792722246667836e-06,
                "1754": 1.8754049051494803e-06,
                "1775": 1.8397777012069128e-06,
                "1796": 1.7760263517629937e-06,
                "1817": 1.7403417814421117e-06,
                "1838": 1.8180512597609777e-06,
                "1859": 1.7898798887472367e-06,
                "186": 1.737605066409742e-06,
                "1880": 1.7636314623814542e-06,
                "1915": 1.7451712437832611e-06,
                "1936": 1.7948217191587902e-06,
                "1957": 1.8970599512613263e-06,
                "1978": 1.8317681224289118e-06,
                "1999": 1.8085080910168472e-06,
                "2020": 1.849009913712507e-06,
                "2041": 1.8102005697073764e-06,
                "2062": 1.6985077991193975e-06,
                "207": 1.759098540787818e-06,
                "2094": 1.5217522559396457e-06,
                "2115": 1.8102658032148611e-06,
                "2136": 1.8009107179750571e-06,
                "2157": 1.8114147451342432e-06,
                "2178": 1.6828312254801858e-06,
                "2199": 1.7065815427486086e-06,
                "2220": 1.881610387499677e-06,
                "2241": 1.6612881381661282e-06,
                "2273": 1.7281793361689778e-06,
                "228": 1.7823748294176767e-06,
                "2294": 1.867700711954967e-06,
                "2315": 1.8505886146158445e-06,
                "2336": 1.8396371160633861e-06,
                "2357": 1.947962982740137e-06,
                "2378": 1.8706564560488913e-06,
                "2399": 1.8923569086837233e-06,
                "2420": 1.7619791833567434e-06,
                "2452": 1.6998514411170618e-06,
                "2473": 1.8815189832821488e-06,
                "249": 1.8110961491402121e-06,
                "2494": 1.8567618781162309e-06,
                "2515": 1.7544322417961666e-06,
                "2536": 1.6861599078765721e-06,
                "2557": 1.9106701756754775e-06,
                "2578": 1.8412521967547945e-06,
                "2599": 1.926286472553329e-06,
                "2631": 1.7663594235273195e-06,
                "2652": 1.8181174709752668e-06,
                "2673": 1.7560655123816104e-06,
                "2694": 1.689005102889496e-06,
                "2715": 1.7591765981705976e-06,
                "2736": 1.7933510662260233e-06,
                "2757": 1.8163677395932609e-06,
                "2778": 1.7884435010273592e-06,
                "281": 1.844421944952046e-06,
                "2817": 1.8412800272926689e-06,
                "2838": 1.968439869415306e-06,
                "2859": 1.8459138573234668e-06,
                "2880": 1.7618935544305713e-06,
                "2901": 1.876773785625119e-06,
                "2922": 1.8321453580938396e-06,
                "2943": 1.6893461634026607e-06,
                "2964": 1.9696644585565083e-06,
                "2996": 1.8503756564314245e-06,
                "3017": 1.8769218058878324e-06,
                "302": 1.759166048032057e-06,
                "3038": 1.838105799834011e-06,
                "3059": 1.7606012306714546e-06,
                "3080": 1.7001337937472272e-06,
                "3101": 1.8179651306127194e-06,
                "3122": 1.7761777371561038e-06,
                "3143": 1.9401032659516205e-06,
                "323": 2.0008528963444404e-06,
                "344": 1.8722032336881967e-06,
                "365": 1.7465708651798196e-06,
                "386": 1.8970980590893305e-06,
                "407": 1.8101957266480895e-06,
                "428": 1.6780939404270612e-06,
                "463": 1.777830743776576e-06,
                "484": 1.6817991991047165e-06,
                "505": 1.8938766061182833e-06,
                "526": 1.9203650026611284e-06,
                "547": 1.822463468670321e-06,
                "568": 1.729719224385917e-06,
                "589": 1.7666577150521334e-06,
                "610": 1.7852702058007709e-06,
                "642": 1.8053766780212754e-06,
                "663": 1.748266026879719e-06,
                "684": 1.8690293245526846e-06,
                "705": 1.8660202840692364e-06,
                "726": 1.775992154762207e-06,
                "747": 1.9249368961027358e-06,
                "768": 1.7852658629635698e-06,
                "789": 1.8100369288731598e-06,
                "821": 1.8505348634789699e-06,
                "842": 1.8381767858954845e-06,
                "863": 1.7514169257992761e-06,
                "884": 1.8041190742223988e-06,
                "905": 1.906182524180622e-06,
                "926": 1.7791725895222043e-06,
                "947": 1.859782696556067e-06,
                "968": 1.672145754127996e-06,
                "NOBCID": 1.8100132198175262e-06
            },
            {
                "1017": 5.7712699056719366e-08,
                "102": 6.512594067039422e-08,
                "1038": 1.3486026564949016e-07,
                "1059": 5.629486012998699e-08,
                "1080": 8.916478980210396e-08,
                "1101": 8.367008760837033e-08,
                "1122": 7.979342607364508e-08,
                "1143": 1.4517080145204983e-07,
                "1164": 5.4997778908040035e-08,
                "1196": 4.3153703250058637e-08,
                "1217": 8.507472323150375e-08,
                "123": 1.200624811618338e-07,
                "1238": 8.002179803568322e-08,
                "1259": 7.40458545513051e-08,
                "1280": 7.827341122814033e-08,
                "1301": 9.324736096707313e-08,
                "1322": 1.1720721807996144e-07,
                "1343": 8.161742264795329e-08,
                "1375": 8.336673045137844e-08,
                "1396": 4.967492497184359e-08,
                "1417": 8.918029419570667e-08,
                "1438": 4.7446621259600646e-08,
                "144": 7.670214108045653e-08,
                "1459": 7.564719628528183e-08,
                "1480": 7.400969471212111e-08,
                "1501": 8.591430593125094e-08,
                "1522": 7.752504264534504e-08,
                "1554": 8.281239008789163e-08,
                "1575": 6.770429369475575e-08,
                "1596": 6.916304070032369e-08,
                "1617": 5.391181477745192e-08,
                "1638": 6.924594535365853e-08,
                "165": 8.42284779944358e-08,
                "1659": 8.30736654032649e-08,
                "1680": 6.159662799246239e-08,
                "1701": 3.975372932275168e-08,
                "1733": 9.397444475975208e-08,
                "1754": 8.182501882094573e-08,
                "1775": 6.773824872465156e-08,
                "1796": 7.485862292266588e-08,
                "1817": 8.181312210483105e-08,
                "1838": 8.996009792340191e-08,
                "1859": 4.12181448128715e-08,
                "186": 7.455881402169491e-08,
                "1880": 4.899730907782542e-08,
                "1915": 2.6704525228433997e-08,
                "1936": 5.779074687523682e-08,
                "1957": 3.8290502346108676e-08,
                "1978": 5.7737734640455116e-08,
                "1999": 6.667503050214676e-08,
                "2020": 1.3454969714452824e-07,
                "2041": 4.442491502259201e-08,
                "2062": 7.498023531156098e-08,
                "207": 4.4038285051458994e-08,
                "2094": 5.566035147454919e-08,
                "2115": 5.7598175252529324e-08,
                "2136": 7.384070946429151e-08,
                "2157": 5.3588294696895806e-08,
                "2178": 7.445835849699295e-08,
                "2199": 7.871014844829981e-08,
                "2220": 2.8370750707357015e-08,
                "2241": 7.409031495118255e-08,
                "2273": 3.8388974932757835e-08,
                "228": 7.406687767800034e-08,
                "2294": 3.112179888793002e-08,
                "2315": 7.160251397659417e-08,
                "2336": 3.9806033783533865e-08,
                "2357": 8.836527987885839e-08,
                "2378": 6.206537198528571e-08,
                "2399": 6.86896225137933e-08,
                "2420": 9.439529370541376e-08,
                "2452": 1.0331583580365533e-07,
                "2473": 7.515673901352157e-08,
                "249": 1.0237572742659936e-07,
                "2494": 8.249048081932269e-08,
                "2515": 1.192231285022647e-07,
                "2536": 4.954378257461671e-08,
                "2557": 1.2765857003818607e-07,
                "2578": 1.0067600022688276e-07,
                "2599": 8.715283542826379e-08,
                "2631": 1.157164898052014e-07,
                "2652": 6.458365444663928e-08,
                "2673": 4.614061240783138e-08,
                "2694": 6.071145877550395e-08,
                "2715": 4.286003258129092e-08,
                "2736": 4.153956297980731e-08,
                "2757": 4.8618902709942255e-08,
                "2778": 7.905434443695665e-08,
                "281": 1.1232288454273191e-07,
                "2817": 4.597636870119249e-08,
                "2838": 5.9219114697646126e-08,
                "2859": 6.711410489247877e-08,
                "2880": 3.4376972126790464e-08,
                "2901": 5.849039265474806e-08,
                "2922": 9.04056574477274e-08,
                "2943": 4.4747926524679585e-08,
                "2964": 7.085851987939155e-08,
                "2996": 8.334492583309496e-08,
                "3017": 4.8278187218262326e-08,
                "302": 5.094102630981833e-08,
                "3038": 6.508333579534747e-08,
                "3059": 8.747970086809108e-08,
                "3080": 8.806056398150959e-08,
                "3101": 7.855296175634586e-08,
                "3122": 6.133424332279316e-08,
                "3143": 7.946852702479952e-08,
                "323": 8.702054444007755e-08,
                "344": 7.748496265051911e-08,
                "365": 4.100982477678463e-08,
                "386": 7.765970544712472e-08,
                "407": 3.508543381425116e-08,
                "428": 6.459707267188904e-08,
                "463": 2.6978990992348834e-08,
                "484": 6.638034235343884e-08,
                "505": 8.796414016701373e-08,
                "526": 8.10108014020469e-08,
                "547": 3.3872569537705706e-08,
                "568": 7.452624769021759e-08,
                "589": 9.182451962439495e-08,
                "610": 7.669887783642576e-08,
                "642": 8.627690571411042e-08,
                "663": 5.896847460785157e-08,
                "684": 7.404292940357588e-08,
                "705": 1.3175719499172105e-07,
                "726": 4.7862361437408325e-08,
                "747": 6.679535643958e-08,
                "768": 1.0113893603337208e-07,
                "789": 3.04111917047606e-08,
                "821": 7.77816737172452e-08,
                "842": 3.661365211547054e-08,
                "863": 9.94260345957664e-08,
                "884": 1.1246357141210359e-07,
                "905": 5.243352694099492e-08,
                "926": 3.974343916599465e-08,
                "947": 5.4429634619913855e-08,
                "968": 5.3528181978939644e-08,
                "NOBCID": 7.019842634893284e-08
            }
        ],
        "scan5_bcm1futcalumi": [
            {
                "1017": 2.0820998088311173e-06,
                "102": 1.9695417449838713e-06,
                "1038": 1.9552790035959333e-06,
                "1059": 1.971525421140541e-06,
                "1080": 2.1377111352194333e-06,
                "1101": 2.008596447922173e-06,
                "1122": 2.0433650206541643e-06,
                "1143": 2.060210749732505e-06,
                "1164": 2.082060541397368e-06,
                "1196": 1.9060760905631468e-06,
                "1217": 1.9942319340771066e-06,
                "123": 2.1355082708396365e-06,
                "1238": 2.110827199430787e-06,
                "1259": 2.123058106917597e-06,
                "1280": 1.9567535673559176e-06,
                "1301": 2.003911322390195e-06,
                "1322": 1.8913136955234221e-06,
                "1343": 1.948968406395579e-06,
                "1375": 1.8774483351080561e-06,
                "1396": 1.938701643666718e-06,
                "1417": 2.098626782753854e-06,
                "1438": 2.1928539808868665e-06,
                "144": 1.975772124751529e-06,
                "1459": 1.98171303509298e-06,
                "1480": 2.0860669792455155e-06,
                "1501": 1.883409208858211e-06,
                "1522": 2.049224667644012e-06,
                "1554": 2.012274012486159e-06,
                "1575": 2.016482494582306e-06,
                "1596": 2.1291181383276125e-06,
                "1617": 2.1662095150531966e-06,
                "1638": 1.8790131662171916e-06,
                "165": 2.1623218344757333e-06,
                "1659": 2.157797234758618e-06,
                "1680": 2.084324114548508e-06,
                "1701": 2.082379705825588e-06,
                "1733": 1.936617513820238e-06,
                "1754": 2.076019086416636e-06,
                "1775": 1.9754722188736194e-06,
                "1796": 1.9820819261440192e-06,
                "1817": 2.0410620209077022e-06,
                "1838": 2.0271675111871446e-06,
                "1859": 2.059432745227241e-06,
                "186": 1.9306772173877105e-06,
                "1880": 1.92461704955349e-06,
                "1915": 1.9058664747717558e-06,
                "1936": 1.9878831153619104e-06,
                "1957": 2.0965745534340386e-06,
                "1978": 2.0532326971078874e-06,
                "1999": 2.02484397959779e-06,
                "2020": 1.9552688627300086e-06,
                "2041": 2.0473120457609183e-06,
                "2062": 1.9757321524593864e-06,
                "207": 1.9674990653584246e-06,
                "2094": 1.729844029796368e-06,
                "2115": 1.975513146135199e-06,
                "2136": 1.9716051156137837e-06,
                "2157": 1.938831087500148e-06,
                "2178": 1.8813057749866857e-06,
                "2199": 1.8977040099343867e-06,
                "2220": 2.157985773010296e-06,
                "2241": 1.932651457536849e-06,
                "2273": 2.0063340798515127e-06,
                "228": 1.959285123120935e-06,
                "2294": 2.170325888073421e-06,
                "2315": 2.119478517670359e-06,
                "2336": 2.0085460619156947e-06,
                "2357": 2.1741838281741365e-06,
                "2378": 2.168441733374493e-06,
                "2399": 2.112910351570463e-06,
                "2420": 1.944681093846157e-06,
                "2452": 1.8531462956161703e-06,
                "2473": 2.1742029275628737e-06,
                "249": 2.012204276979901e-06,
                "2494": 2.078163311125536e-06,
                "2515": 2.0042500864292378e-06,
                "2536": 1.9163536080668566e-06,
                "2557": 2.104577720274392e-06,
                "2578": 2.0272758547434933e-06,
                "2599": 2.0946593167536775e-06,
                "2631": 1.9304280385767926e-06,
                "2652": 2.0127428342675557e-06,
                "2673": 1.9530747067619814e-06,
                "2694": 1.7912856264956645e-06,
                "2715": 1.9673093220262673e-06,
                "2736": 1.9654157313198086e-06,
                "2757": 2.0207372017466694e-06,
                "2778": 2.143531764886575e-06,
                "281": 2.110938271471241e-06,
                "2817": 2.028971357503906e-06,
                "2838": 2.2215415356185986e-06,
                "2859": 2.084513380395947e-06,
                "2880": 2.018734016928647e-06,
                "2901": 2.1089736037538387e-06,
                "2922": 2.0555958144541364e-06,
                "2943": 1.84874072601815e-06,
                "2964": 2.159918994948384e-06,
                "2996": 2.0125536821069543e-06,
                "3017": 2.1683814338757657e-06,
                "302": 1.9551181139831898e-06,
                "3038": 2.0227314735166146e-06,
                "3059": 1.949008787960338e-06,
                "3080": 1.940954484780377e-06,
                "3101": 2.0762888652825495e-06,
                "3122": 2.0413813444974948e-06,
                "3143": 2.155911988666048e-06,
                "323": 2.200998005719157e-06,
                "344": 2.143561846423836e-06,
                "365": 1.8505146272218554e-06,
                "386": 2.159989367100934e-06,
                "407": 1.981773812076426e-06,
                "428": 1.8874559827963822e-06,
                "463": 1.95716122561862e-06,
                "484": 1.8999058738700115e-06,
                "505": 2.0593823819581303e-06,
                "526": 2.176705402234802e-06,
                "547": 2.0106498595851007e-06,
                "568": 1.8814557279256405e-06,
                "589": 1.930228677338164e-06,
                "610": 2.008526735153282e-06,
                "642": 2.0086655240447727e-06,
                "663": 1.9166022866556887e-06,
                "684": 2.0859082724200565e-06,
                "705": 2.11902111004747e-06,
                "726": 1.9409242668189107e-06,
                "747": 2.0762485519298933e-06,
                "768": 2.010590765166853e-06,
                "789": 2.0289110125304433e-06,
                "821": 2.076089253932878e-06,
                "842": 2.000382528422051e-06,
                "863": 2.0618952248696586e-06,
                "884": 2.066011734314088e-06,
                "905": 2.1189616518313415e-06,
                "926": 1.9898860955436247e-06,
                "947": 2.020527927015792e-06,
                "968": 1.8423710116621806e-06,
                "NOBCID": 2.0205344558168207e-06
            },
            {
                "1017": 5.441728319682859e-08,
                "102": 5.8339478083420044e-08,
                "1038": 1.259896321644024e-07,
                "1059": 3.115201149229604e-08,
                "1080": 5.495438240361802e-08,
                "1101": 4.964641487470919e-08,
                "1122": 1.2993915192639697e-07,
                "1143": 1.7728970621672406e-07,
                "1164": 7.625792432674757e-08,
                "1196": 8.641903625902461e-08,
                "1217": 9.317325299672341e-08,
                "123": 1.4047115229190628e-07,
                "1238": 1.0743860476542547e-07,
                "1259": 7.349574905902521e-08,
                "1280": 1.1894649442483046e-07,
                "1301": 9.992422097330203e-08,
                "1322": 1.1900087645540587e-07,
                "1343": 8.402296987331427e-08,
                "1375": 7.03848463763114e-08,
                "1396": 7.092618426523582e-08,
                "1417": 1.0891769766777872e-07,
                "1438": 8.455676560713233e-08,
                "144": 6.54321826312588e-08,
                "1459": 8.49963721593842e-08,
                "1480": 1.0723849732697652e-07,
                "1501": 8.157904110348176e-08,
                "1522": 9.992110937143543e-08,
                "1554": 9.574848849262315e-08,
                "1575": 7.672326786675404e-08,
                "1596": 4.827492672642414e-08,
                "1617": 9.996042258658715e-08,
                "1638": 7.542848244450539e-08,
                "165": 9.572564798773875e-08,
                "1659": 8.630278827389627e-08,
                "1680": 3.8182803712688776e-08,
                "1701": 5.6437507517292395e-08,
                "1733": 9.308244242948894e-08,
                "1754": 6.835519761335882e-08,
                "1775": 6.802147924921333e-08,
                "1796": 8.285553479601707e-08,
                "1817": 1.0267864959965633e-07,
                "1838": 8.612345955633641e-08,
                "1859": 9.857589804498552e-08,
                "186": 6.151834928779562e-08,
                "1880": 7.720345965932886e-08,
                "1915": 2.99564018139904e-08,
                "1936": 1.7378496166539675e-08,
                "1957": 2.6839299428900624e-08,
                "1978": 6.806586862362477e-08,
                "1999": 1.1361639623506284e-07,
                "2020": 1.39976078563893e-07,
                "2041": 7.986388309598006e-08,
                "2062": 1.007286253870725e-07,
                "207": 5.1014579894859325e-08,
                "2094": 4.3741453329641774e-08,
                "2115": 8.859884403444313e-08,
                "2136": 7.146252121087616e-08,
                "2157": 7.475187643105902e-08,
                "2178": 1.3203285304483586e-07,
                "2199": 7.0484084633992e-08,
                "2220": 2.531072837569723e-08,
                "2241": 9.581816482321523e-08,
                "2273": 5.214881169520648e-08,
                "228": 1.115479711443678e-07,
                "2294": 3.8075325901786126e-08,
                "2315": 9.909615016743576e-08,
                "2336": 9.412959330069213e-08,
                "2357": 9.068537081959265e-08,
                "2378": 7.421347634899989e-08,
                "2399": 8.586049565011285e-08,
                "2420": 1.1190001056694866e-07,
                "2452": 1.1531701468069455e-07,
                "2473": 6.275700021109716e-08,
                "249": 8.038140957035535e-08,
                "2494": 8.067609863648515e-08,
                "2515": 9.633194558329727e-08,
                "2536": 4.5307428129372193e-08,
                "2557": 1.0617696563629159e-07,
                "2578": 1.3943489152985723e-07,
                "2599": 9.789536878289475e-08,
                "2631": 1.540337026571123e-07,
                "2652": 8.345747915649477e-08,
                "2673": 9.713729934627689e-08,
                "2694": 5.0130513347089354e-08,
                "2715": 3.96010088644388e-08,
                "2736": 5.949065225307569e-08,
                "2757": 4.003491035815275e-08,
                "2778": 1.0723691106167431e-07,
                "281": 1.0695511812355589e-07,
                "2817": 5.342178152565412e-08,
                "2838": 4.228090288133544e-08,
                "2859": 6.878284827327148e-08,
                "2880": 3.830961749175245e-08,
                "2901": 7.544721789981497e-08,
                "2922": 1.1843931548273751e-07,
                "2943": 4.743120434791736e-08,
                "2964": 8.209635203498579e-08,
                "2996": 8.960311775741462e-08,
                "3017": 3.153825831784522e-08,
                "302": 1.0795949356950704e-07,
                "3038": 6.662456391253692e-08,
                "3059": 8.627972540811604e-08,
                "3080": 1.2225695734961238e-07,
                "3101": 8.227743850186153e-08,
                "3122": 1.0262003227746278e-07,
                "3143": 7.722482999009962e-08,
                "323": 8.326572746853973e-08,
                "344": 8.095338562045361e-08,
                "365": 4.431021683737858e-08,
                "386": 7.799603579113256e-08,
                "407": 1.971668628653987e-08,
                "428": 6.935472342013029e-08,
                "463": 4.97986432586664e-08,
                "484": 9.167640851397217e-08,
                "505": 1.194267361154208e-07,
                "526": 8.792864536019577e-08,
                "547": 9.409611355834594e-08,
                "568": 1.1225266324201093e-07,
                "589": 7.2924420890968e-08,
                "610": 1.0370454696196896e-07,
                "642": 1.0354189783406688e-07,
                "663": 1.0181868531766976e-07,
                "684": 1.0846983546655507e-07,
                "705": 1.196138718432046e-07,
                "726": 6.66141858945236e-08,
                "747": 9.552785679346889e-08,
                "768": 6.886279402471149e-08,
                "789": 1.9804065910454983e-08,
                "821": 8.536117136928449e-08,
                "842": 6.06132603653822e-08,
                "863": 1.5190415144845326e-07,
                "884": 1.252062240961435e-07,
                "905": 6.688803009131268e-08,
                "926": 4.1064105000326955e-08,
                "947": 7.82810029480247e-08,
                "968": 5.253293043488938e-08,
                "NOBCID": 8.34569786521241e-08
            }
        ],
        "scan5_hfetlumi": [
            {
                "1017": -3.445477341301739e-05,
                "102": -5.314009104040451e-06,
                "1038": -4.313328026910313e-05,
                "1059": -4.0325076406588777e-05,
                "1080": -3.76932046492584e-05,
                "1101": -4.974578259862028e-05,
                "1122": -4.2427041626069696e-05,
                "1143": -4.2146055056946353e-05,
                "1164": -3.923927215510048e-05,
                "1196": -3.781443228945136e-05,
                "1217": -3.685817755467724e-05,
                "123": -9.106320158025483e-06,
                "1238": -3.2421748619526626e-05,
                "1259": -3.934518244932406e-05,
                "1280": -3.903474862454459e-05,
                "1301": -4.505627584876493e-05,
                "1322": -4.242743889335543e-05,
                "1343": -4.676471289712936e-05,
                "1375": -3.864439968310762e-05,
                "1396": -4.226532328175381e-05,
                "1417": -4.210186671116389e-05,
                "1438": -2.948909859696869e-05,
                "144": -2.0666414275183343e-05,
                "1459": -4.3720899702748285e-05,
                "1480": -4.448632025741972e-05,
                "1501": -3.743211054825224e-05,
                "1522": -3.5988174568046814e-05,
                "1554": -4.6298035886138675e-05,
                "1575": -4.231076745782047e-05,
                "1596": -5.003045298508368e-05,
                "1617": -3.758278253371827e-05,
                "1638": -4.915661120321602e-05,
                "165": -1.666607986408053e-05,
                "1659": -5.389344514696859e-05,
                "1680": -5.021320175728761e-05,
                "1701": -4.4365195208229125e-05,
                "1733": -4.020581545773894e-05,
                "1754": -4.175303183728829e-05,
                "1775": -4.05233251512982e-05,
                "1796": -4.175203721388243e-05,
                "1817": -3.789829715969972e-05,
                "1838": -3.397362634132151e-05,
                "1859": -4.727883351733908e-05,
                "186": -1.9290479394840075e-05,
                "1880": -4.1749859519768506e-05,
                "1915": -4.135530616622418e-05,
                "1936": -5.904166100663133e-05,
                "1957": -4.625419242074713e-05,
                "1978": -4.646669694921002e-05,
                "1999": -5.6361538008786737e-05,
                "2020": -4.765607300214469e-05,
                "2041": -4.250581478117965e-05,
                "2062": -4.1203179716831076e-05,
                "207": -1.898076297948137e-05,
                "2094": -3.9956887485459446e-05,
                "2115": -4.052129806950688e-05,
                "2136": -4.069641145179048e-05,
                "2157": -4.9388329352950676e-05,
                "2178": -4.3698939407477155e-05,
                "2199": -5.1374077884247527e-05,
                "2220": -5.047746526543051e-05,
                "2241": -5.343734665075317e-05,
                "2273": -4.409019311424345e-05,
                "228": -2.315869860467501e-05,
                "2294": -3.9870590262580664e-05,
                "2315": -4.2311479046475145e-05,
                "2336": -4.627182424883358e-05,
                "2357": -4.35597074101679e-05,
                "2378": -3.771829360630363e-05,
                "2399": -4.009643234894611e-05,
                "2420": -4.6513164124917236e-05,
                "2452": -9.280140802729875e-05,
                "2473": -5.1773618179140615e-05,
                "249": -1.8800476937030908e-05,
                "2494": -5.7600509171606974e-05,
                "2515": -4.789843078469858e-05,
                "2536": -6.140744881122373e-05,
                "2557": -4.567238720483146e-05,
                "2578": -4.8553221859037876e-05,
                "2599": -4.170015454292297e-05,
                "2631": -4.061229337821714e-05,
                "2652": -4.3001206358894704e-05,
                "2673": -4.433014764799736e-05,
                "2694": -3.4696173315751366e-05,
                "2715": -3.828701374004595e-05,
                "2736": -4.124890983803198e-05,
                "2757": -4.522548042587005e-05,
                "2778": -4.363869375083596e-05,
                "281": -1.6456177945656236e-05,
                "2817": -3.453046847425867e-05,
                "2838": -4.040274288854562e-05,
                "2859": -3.676806663861498e-05,
                "2880": -3.687905118567869e-05,
                "2901": -3.844754974124953e-05,
                "2922": -3.664638170448597e-05,
                "2943": -3.941103132092394e-05,
                "2964": -4.1121062531601636e-05,
                "2996": -3.6756358895218e-05,
                "3017": -4.2699083860497924e-05,
                "302": -2.0227999266353434e-05,
                "3038": -3.621710529841948e-05,
                "3059": -3.699922453961335e-05,
                "3080": -4.315655751270242e-05,
                "3101": -3.704477639985271e-05,
                "3122": -3.4064843566739e-05,
                "3143": -3.71294969227165e-05,
                "323": -2.040855797531549e-05,
                "344": -2.5595555052859707e-05,
                "365": -3.255295305280015e-05,
                "386": -2.8319632838247345e-05,
                "407": -4.0634794277139005e-05,
                "428": -4.0053900011116636e-05,
                "463": -3.3491558860987423e-05,
                "484": -3.079317721130792e-05,
                "505": -2.8536765967146493e-05,
                "526": -2.494120053597726e-05,
                "547": -2.6916094066109507e-05,
                "568": -2.8248390663065948e-05,
                "589": -2.9762171106995083e-05,
                "610": -2.75796526693739e-05,
                "642": -2.8926290178787893e-05,
                "663": -3.225334148737602e-05,
                "684": -3.50380676536588e-05,
                "705": -3.240299629396759e-05,
                "726": -3.6386181091074834e-05,
                "747": -3.845871142402757e-05,
                "768": -3.553477072273381e-05,
                "789": -3.657524539448787e-05,
                "821": -2.8048332751495764e-05,
                "842": -3.069091253564693e-05,
                "863": -2.6202090157312342e-05,
                "884": -3.396207903278991e-05,
                "905": -3.408600750844926e-05,
                "926": -3.258938413637224e-05,
                "947": -3.590332416933961e-05,
                "968": -4.43166252807714e-05,
                "NOBCID": -3.873106395597942e-05
            },
            {
                "1017": 1.4532731244197938e-06,
                "102": 2.2951466855670446e-06,
                "1038": 2.349897999588699e-06,
                "1059": 2.838338485247809e-06,
                "1080": 3.3895874142624074e-06,
                "1101": 2.1408828218376363e-06,
                "1122": 3.008434203870124e-06,
                "1143": 2.2136390073087164e-06,
                "1164": 2.2088621188830663e-06,
                "1196": 1.4323512248237943e-06,
                "1217": 2.374252941132761e-06,
                "123": 1.2351380259221256e-06,
                "1238": 2.689438926787586e-06,
                "1259": 2.5743477763374238e-06,
                "1280": 1.8734532302683418e-06,
                "1301": 8.850596623467632e-07,
                "1322": 2.6025066906197587e-06,
                "1343": 2.3006545259402315e-06,
                "1375": 3.4701757500725905e-06,
                "1396": 3.243341553047853e-06,
                "1417": 3.393510175322683e-06,
                "1438": 1.6630626593246366e-06,
                "144": 1.8063979562006172e-06,
                "1459": 2.152518197504639e-06,
                "1480": 2.1460495702690163e-06,
                "1501": 2.768838088719574e-06,
                "1522": 2.2956502581417434e-06,
                "1554": 3.2985053959021405e-06,
                "1575": 2.2371012733766116e-06,
                "1596": 2.7247056402689788e-06,
                "1617": 1.3510539683288815e-06,
                "1638": 2.489303755178535e-06,
                "165": 1.5487628299691027e-06,
                "1659": 1.7314162418199863e-06,
                "1680": 2.3786715628941616e-06,
                "1701": 2.086827662733512e-06,
                "1733": 1.1477282327640366e-06,
                "1754": 1.7261624716105411e-06,
                "1775": 2.723491001097031e-06,
                "1796": 2.174958385172437e-06,
                "1817": 1.0434011266947746e-06,
                "1838": 1.0695908376271531e-06,
                "1859": 2.1135839359369762e-06,
                "186": 2.770250451922218e-06,
                "1880": 2.6830674177714116e-06,
                "1915": 2.4150329415355973e-06,
                "1936": 1.6152656452342298e-06,
                "1957": 1.3839942296586165e-06,
                "1978": 2.3867178716095576e-06,
                "1999": 3.0181889814304654e-06,
                "2020": 2.0124830537459074e-06,
                "2041": 2.2245546594652267e-06,
                "2062": 2.565354881498623e-06,
                "207": 3.739391902650228e-06,
                "2094": 1.9014365928481302e-06,
                "2115": 3.0036520103943433e-06,
                "2136": 2.483833912232009e-06,
                "2157": 2.080743944197423e-06,
                "2178": 2.4700686735129653e-06,
                "2199": 2.600439532255059e-06,
                "2220": 1.9129342176017647e-06,
                "2241": 3.349563528177346e-06,
                "2273": 2.0288640525997237e-06,
                "228": 1.8185334843214178e-06,
                "2294": 1.0785156496327332e-06,
                "2315": 2.6043374260193782e-06,
                "2336": 2.600209467547007e-06,
                "2357": 1.7689651178678716e-06,
                "2378": 2.2724425397623333e-06,
                "2399": 1.1315459710823103e-06,
                "2420": 2.4356888081002043e-06,
                "2452": 2.5519221548808734e-06,
                "2473": 1.3038288079042607e-06,
                "249": 1.8386206583578344e-06,
                "2494": 1.4605504617195818e-06,
                "2515": 2.027433132010673e-06,
                "2536": 1.5329147615074666e-06,
                "2557": 2.3193660793746554e-06,
                "2578": 2.580089512209174e-06,
                "2599": 2.2806770140074707e-06,
                "2631": 2.386985264817605e-06,
                "2652": 2.954727454287991e-06,
                "2673": 1.1893208439925059e-06,
                "2694": 2.185355826826778e-06,
                "2715": 1.0530474095888972e-06,
                "2736": 2.9077891728929773e-06,
                "2757": 2.707227355712728e-06,
                "2778": 2.455970879965057e-06,
                "281": 2.223259712803902e-06,
                "2817": 1.8456140857420247e-06,
                "2838": 1.4839717316764851e-06,
                "2859": 1.297763546995017e-06,
                "2880": 1.7453612125582184e-06,
                "2901": 1.9248237832956007e-06,
                "2922": 2.6989954297814575e-06,
                "2943": 2.476422263721309e-06,
                "2964": 3.59451190195207e-06,
                "2996": 2.6072548893254882e-06,
                "3017": 1.7044250086280838e-06,
                "302": 1.4547272767191198e-06,
                "3038": 2.026395683910307e-06,
                "3059": 3.372281252262688e-06,
                "3080": 1.270237770385019e-06,
                "3101": 1.0053415147313913e-06,
                "3122": 2.426366734207248e-06,
                "3143": 2.3224475248665295e-06,
                "323": 2.4411591256950387e-06,
                "344": 2.191974098624026e-06,
                "365": 3.097742794921116e-06,
                "386": 1.4045735938463889e-06,
                "407": 1.4513830547040524e-06,
                "428": 1.864074633225779e-06,
                "463": 2.8571200308637485e-06,
                "484": 1.6235999020137686e-06,
                "505": 1.8972902343727237e-06,
                "526": 1.6572670839022846e-06,
                "547": 3.473942437024646e-06,
                "568": 7.866863844982349e-07,
                "589": 1.751507657732051e-06,
                "610": 2.4609077621023915e-06,
                "642": 2.2743381206517035e-06,
                "663": 1.8616741888517891e-06,
                "684": 2.4213842305663194e-06,
                "705": 1.9101243543055906e-06,
                "726": 3.386265474000293e-06,
                "747": 2.105123689450684e-06,
                "768": 1.5008859460041993e-06,
                "789": 2.1047096949383716e-06,
                "821": 3.4053861995891437e-06,
                "842": 3.48489221678412e-06,
                "863": 3.344919388161999e-06,
                "884": 2.6670895012279452e-06,
                "905": 3.256189950180042e-06,
                "926": 1.5946035938892613e-06,
                "947": 2.2610116513080693e-06,
                "968": 1.4744643297843067e-06,
                "NOBCID": 5.108362377321348e-06
            }
        ],
        "scan5_hfoclumi": [
            {
                "1017": -4.138863459957065e-07,
                "102": -1.2992622649456165e-07,
                "1038": -2.6273448039404457e-07,
                "1059": -9.687304043382028e-08,
                "1080": -7.044191420391144e-07,
                "1101": -3.997100748165394e-07,
                "1122": -6.998784293221761e-08,
                "1143": -1.8898742908390888e-07,
                "1164": -7.386445417978393e-07,
                "1196": -8.431553169430117e-07,
                "1217": -4.573866831947271e-07,
                "123": -7.702583246782523e-08,
                "1238": -1.4292308634367145e-07,
                "1259": -6.819773616939528e-08,
                "1280": -9.800423640626833e-07,
                "1301": -2.461635830286468e-07,
                "1322": -8.866710743404838e-08,
                "1343": -2.8980663273614483e-07,
                "1375": -2.490189743298288e-07,
                "1396": -7.19905654023023e-07,
                "1417": -4.4116037258845606e-07,
                "1438": -9.176441864156005e-08,
                "144": -8.116649496514583e-07,
                "1459": -1.858240068486339e-07,
                "1480": -7.47894205233024e-07,
                "1501": -4.3875216988453757e-07,
                "1522": -3.1728405218700574e-07,
                "1554": -3.1057495846198436e-07,
                "1575": -2.6515102096169586e-07,
                "1596": -8.923811947170179e-07,
                "1617": -3.9849312258866123e-07,
                "1638": -1.6826576398898396e-07,
                "165": -7.963396058130455e-08,
                "1659": -2.664044444600222e-07,
                "1680": -8.259105698016356e-07,
                "1701": -3.0600729603591505e-07,
                "1733": -4.4940375119040257e-07,
                "1754": -1.7059377626083007e-07,
                "1775": -2.1466888426857623e-07,
                "1796": -8.153412181854947e-07,
                "1817": -1.9293674355935763e-07,
                "1838": -1.7720589653436037e-07,
                "1859": -2.2077521428243151e-07,
                "186": -2.0795809518858732e-07,
                "1880": -7.63683135573956e-07,
                "1915": -2.4958838196198485e-07,
                "1936": -8.40945267555071e-07,
                "1957": -3.4629694596333137e-07,
                "1978": -1.9303881373389232e-07,
                "1999": -1.5111070847950713e-07,
                "2020": -8.00512009391241e-07,
                "2041": -5.258470821445371e-07,
                "2062": -2.8778943885754413e-07,
                "207": -2.5267779122373215e-07,
                "2094": -1.215239983309857e-07,
                "2115": -6.301277153397677e-08,
                "2136": -8.422035534749739e-07,
                "2157": -5.58505939807219e-07,
                "2178": -2.5016583578008066e-07,
                "2199": -3.48240816094858e-07,
                "2220": -9.836042750066553e-07,
                "2241": -5.114510884141054e-07,
                "2273": -4.125472628402349e-07,
                "228": -6.701828151989276e-07,
                "2294": -2.8535626483972006e-08,
                "2315": -2.5932312226473185e-07,
                "2336": -8.816042964099325e-07,
                "2357": -4.047203958634782e-07,
                "2378": -3.6311119799847794e-08,
                "2399": -1.215442452462412e-07,
                "2420": -8.332290576618106e-07,
                "2452": -1.0146174986402912e-06,
                "2473": -1.8868706632702015e-07,
                "249": -3.314571671353406e-07,
                "2494": -1.2332218233268576e-07,
                "2515": -3.1568112888180624e-07,
                "2536": -9.482331506660557e-07,
                "2557": -3.126808515219182e-07,
                "2578": -3.0887801392154304e-07,
                "2599": -1.8487973818537294e-08,
                "2631": -2.061466204850149e-07,
                "2652": -8.874343393472373e-07,
                "2673": -3.4288117038983047e-07,
                "2694": -1.7940690781870218e-07,
                "2715": -1.5627594791567389e-07,
                "2736": -8.005420795598183e-07,
                "2757": -3.7378050095071557e-07,
                "2778": -3.1463762764083467e-07,
                "281": -3.12771587118732e-07,
                "2817": -5.135853143656277e-07,
                "2838": -1.8156254006918003e-07,
                "2859": -2.505061559077149e-07,
                "2880": -7.050904969219118e-07,
                "2901": -1.0651819692952813e-07,
                "2922": -1.528028739983256e-07,
                "2943": -1.4993192891665786e-07,
                "2964": -7.616674793098355e-07,
                "2996": -9.405624837199866e-07,
                "3017": -6.209093271536404e-07,
                "302": -1.0300928465767359e-07,
                "3038": -1.2570101031172954e-07,
                "3059": -8.62918810184965e-08,
                "3080": -7.870965646361582e-07,
                "3101": -3.634035374844302e-07,
                "3122": -1.8916529178625297e-07,
                "3143": -1.4357786994878552e-07,
                "323": 3.660485159429072e-08,
                "344": -8.881004646354995e-07,
                "365": -2.743615269196198e-07,
                "386": -2.433666224987974e-07,
                "407": -1.766841030814703e-07,
                "428": -6.893207057601103e-07,
                "463": -2.0910561744358346e-07,
                "484": -8.009871066860796e-07,
                "505": -2.765181221775493e-07,
                "526": -1.2744137158904323e-07,
                "547": -8.23093913027151e-08,
                "568": -6.958897415643151e-07,
                "589": -2.3142821188315564e-07,
                "610": -1.4920552260377917e-07,
                "642": -4.804863920071513e-08,
                "663": -1.9892458631431963e-07,
                "684": -9.488755949860206e-07,
                "705": -4.3903730784222716e-07,
                "726": -2.1647458083862148e-07,
                "747": -2.996570344748761e-07,
                "768": -7.261519726853294e-07,
                "789": -2.4342613329508823e-07,
                "821": -3.2289391285189593e-07,
                "842": -4.9088208342595865e-08,
                "863": -6.786095241295698e-08,
                "884": -7.363414397332235e-07,
                "905": -2.733996844028752e-07,
                "926": -1.6919089205202908e-07,
                "947": -3.845166958171831e-08,
                "968": -9.248992682842072e-07,
                "NOBCID": -3.8036652618659814e-07
            },
            {
                "1017": 7.849248635273049e-08,
                "102": 1.2600780289021016e-07,
                "1038": 9.111441676710944e-08,
                "1059": 1.4769335245109277e-07,
                "1080": 5.0128714712597575e-08,
                "1101": 8.155483820208028e-08,
                "1122": 3.266281239773863e-08,
                "1143": 8.941758027618117e-08,
                "1164": 1.0274684612222338e-07,
                "1196": 7.363483531323206e-08,
                "1217": 1.208485825510801e-07,
                "123": 1.6080534786050835e-07,
                "1238": 1.404360550692996e-07,
                "1259": 1.1795599550033634e-07,
                "1280": 7.187051834481967e-08,
                "1301": 1.0689980893494434e-07,
                "1322": 1.3108223560112188e-07,
                "1343": 5.537572689353223e-08,
                "1375": 1.1162529583402789e-07,
                "1396": 1.0306534100079251e-07,
                "1417": 6.335567337805714e-08,
                "1438": 1.283397989001959e-07,
                "144": 1.2260263145228136e-07,
                "1459": 6.344360328511228e-08,
                "1480": 1.0651106221158935e-07,
                "1501": 8.994090356090564e-08,
                "1522": 9.304940568936624e-08,
                "1554": 8.730974294438427e-08,
                "1575": 1.4559071602953366e-07,
                "1596": 1.079618820517492e-07,
                "1617": 1.1433550392753634e-07,
                "1638": 1.281560866863007e-07,
                "165": 9.64591306861543e-08,
                "1659": 4.3936179108076485e-08,
                "1680": 4.851663074345124e-08,
                "1701": 1.0219832057991108e-07,
                "1733": 7.607588794089283e-08,
                "1754": 8.031664351754672e-08,
                "1775": 8.897996605375983e-08,
                "1796": 7.924842267482548e-08,
                "1817": 9.573202274688092e-08,
                "1838": 9.051976115923089e-08,
                "1859": 1.2260063652833516e-07,
                "186": 1.494642791618207e-07,
                "1880": 8.120677663195759e-08,
                "1915": 1.259411713389833e-07,
                "1936": 5.782832966548978e-08,
                "1957": 7.234630703608562e-08,
                "1978": 1.8716672279355647e-07,
                "1999": 5.98935375379686e-08,
                "2020": 8.674692495934576e-08,
                "2041": 1.1993340662377754e-07,
                "2062": 1.135764944943408e-07,
                "207": 5.624883596302937e-08,
                "2094": 1.1569676369701253e-07,
                "2115": 1.5143611172200256e-07,
                "2136": 1.120808546420521e-07,
                "2157": 8.056896924010915e-08,
                "2178": 6.404617088856359e-08,
                "2199": 7.334860210657705e-08,
                "2220": 1.2502359245326872e-07,
                "2241": 9.9742131659862e-08,
                "2273": 9.037391984443889e-08,
                "228": 1.7708194085133055e-07,
                "2294": 7.310183409115318e-08,
                "2315": 1.1345999174260729e-07,
                "2336": 8.042909993521988e-08,
                "2357": 9.305905042256925e-08,
                "2378": 1.425484677544267e-07,
                "2399": 1.138061311298835e-07,
                "2420": 5.212366848025125e-08,
                "2452": 9.740695733350555e-08,
                "2473": 1.1508472324852573e-07,
                "249": 7.185038581367963e-08,
                "2494": 7.542787156311061e-08,
                "2515": 7.916870301706707e-08,
                "2536": 7.672435192321977e-08,
                "2557": 1.8101959798167967e-07,
                "2578": 1.0105465649289384e-07,
                "2599": 9.452584024520553e-08,
                "2631": 1.1133681190704424e-07,
                "2652": 1.0713757548528246e-07,
                "2673": 1.0157219137410896e-07,
                "2694": 1.5712884495664972e-07,
                "2715": 9.621808273161085e-08,
                "2736": 1.3302264038417116e-07,
                "2757": 1.1616164217633101e-07,
                "2778": 1.3946677070880874e-07,
                "281": 5.6878938568751214e-08,
                "2817": 1.3033390638597156e-07,
                "2838": 6.614825284603482e-08,
                "2859": 3.5443174811415884e-08,
                "2880": 7.369098565938285e-08,
                "2901": 1.4321550437550636e-07,
                "2922": 1.2997831658939537e-07,
                "2943": 5.47662757837379e-08,
                "2964": 1.5111099380602642e-07,
                "2996": 1.1403943319049864e-07,
                "3017": 1.0293192568128401e-07,
                "302": 6.9105396800039e-08,
                "3038": 6.747420776586246e-08,
                "3059": 4.877991724593938e-08,
                "3080": 6.987569085198377e-08,
                "3101": 1.4479607270213549e-07,
                "3122": 1.103342126811078e-07,
                "3143": 1.0096748133774752e-07,
                "323": 8.716644070995727e-08,
                "344": 6.815364528446635e-08,
                "365": 6.176668167442698e-08,
                "386": 1.2880838342500604e-07,
                "407": 7.10540845216312e-08,
                "428": 1.5117685204881715e-07,
                "463": 9.192105504745897e-08,
                "484": 6.632416317840723e-08,
                "505": 4.630663345612279e-08,
                "526": 1.4678737527359208e-07,
                "547": 8.365056949458737e-08,
                "568": 6.208420082756395e-08,
                "589": 7.309588118721126e-08,
                "610": 7.481590863531626e-08,
                "642": 1.6638789944667726e-07,
                "663": 6.983922097929472e-08,
                "684": 1.434282936612984e-07,
                "705": 9.156353241190019e-08,
                "726": 1.1659057544908809e-07,
                "747": 7.143206873865154e-08,
                "768": 4.842376757045178e-08,
                "789": 1.1217048457091062e-07,
                "821": 9.953507285985853e-08,
                "842": 1.031397399113483e-07,
                "863": 9.646778566071075e-08,
                "884": 4.0516991149020517e-08,
                "905": 7.421420246016228e-08,
                "926": 1.0678229404647656e-07,
                "947": 9.136885216779225e-08,
                "968": 1.1851223896017951e-07,
                "NOBCID": 1.525786105391517e-07
            }
        ],
        "scan5_pltlumizero": [
            {
                "1017": 2.163690646739269e-06,
                "102": 1.8676115132620907e-06,
                "1038": 1.9490054228299414e-06,
                "1059": 1.9594925106503068e-06,
                "1080": 2.2785724922869123e-06,
                "1101": 2.054124797723489e-06,
                "1122": 2.047143357231107e-06,
                "1143": 1.99316552880191e-06,
                "1164": 2.003419831453357e-06,
                "1196": 2.0837346028201862e-06,
                "1217": 2.2327180431602757e-06,
                "123": 2.2186829482961913e-06,
                "1238": 2.346002474951092e-06,
                "1259": 2.3094818061508705e-06,
                "1280": 2.0465145098569337e-06,
                "1301": 2.130088182639156e-06,
                "1322": 2.011162655435328e-06,
                "1343": 1.954076014953898e-06,
                "1375": 1.949108127519139e-06,
                "1396": 2.0379894067446e-06,
                "1417": 2.026509332608839e-06,
                "1438": 2.158445568056777e-06,
                "144": 1.887987355075893e-06,
                "1459": 2.1650085500368734e-06,
                "1480": 2.1094376052133155e-06,
                "1501": 2.0504712438196294e-06,
                "1522": 1.967134039659868e-06,
                "1554": 2.142350172107399e-06,
                "1575": 1.954386652869289e-06,
                "1596": 2.180055207645637e-06,
                "1617": 2.14430911000818e-06,
                "1638": 1.8049582195089898e-06,
                "165": 2.3039291136228713e-06,
                "1659": 2.0432171140782885e-06,
                "1680": 2.1693381313525606e-06,
                "1701": 2.240017556687235e-06,
                "1733": 2.222501098003704e-06,
                "1754": 2.1976342168272822e-06,
                "1775": 2.022051444328099e-06,
                "1796": 1.990760688386217e-06,
                "1817": 2.122909768331738e-06,
                "1838": 2.260645396745531e-06,
                "1859": 2.0001497887278676e-06,
                "186": 2.026239098995575e-06,
                "1880": 2.110464424731617e-06,
                "1915": 1.8867262951971497e-06,
                "1936": 2.0705646647911634e-06,
                "1957": 2.1710453893319936e-06,
                "1978": 2.0037766262248626e-06,
                "1999": 1.934689407789847e-06,
                "2020": 1.9937133401981555e-06,
                "2041": 2.2353841814037877e-06,
                "2062": 1.9358762983756606e-06,
                "207": 1.8869431642087875e-06,
                "2094": 1.7587077536518336e-06,
                "2115": 2.302155189681798e-06,
                "2136": 2.1711105091526406e-06,
                "2157": 2.038991760855424e-06,
                "2178": 1.8335169215788483e-06,
                "2199": 1.9085291796727687e-06,
                "2220": 2.402311656624079e-06,
                "2241": 1.847287194323144e-06,
                "2273": 2.2121168967714766e-06,
                "228": 1.876027999969665e-06,
                "2294": 2.11060050787637e-06,
                "2315": 2.1931074115855154e-06,
                "2336": 1.940596621352597e-06,
                "2357": 2.3423092443408677e-06,
                "2378": 2.2876146431372034e-06,
                "2399": 2.209290050814161e-06,
                "2420": 1.933202497639286e-06,
                "2452": 1.8944974726764485e-06,
                "2473": 2.3429447082889966e-06,
                "249": 2.024480318141286e-06,
                "2494": 2.0967980844943668e-06,
                "2515": 2.145288613064622e-06,
                "2536": 1.7983212046601693e-06,
                "2557": 2.138315130650881e-06,
                "2578": 1.982097455766052e-06,
                "2599": 2.2596283542952732e-06,
                "2631": 2.129834547304199e-06,
                "2652": 2.29090896937123e-06,
                "2673": 2.195523734371818e-06,
                "2694": 1.939738331202534e-06,
                "2715": 2.0672811842814555e-06,
                "2736": 2.158935467377887e-06,
                "2757": 2.1388552795542637e-06,
                "2778": 2.1157245100766888e-06,
                "281": 2.0831794245168567e-06,
                "2817": 2.0704878352262314e-06,
                "2838": 2.309960382262943e-06,
                "2859": 2.1425001932584564e-06,
                "2880": 1.9561717408578262e-06,
                "2901": 2.0622590909624706e-06,
                "2922": 2.3092502715371665e-06,
                "2943": 2.1679845986000145e-06,
                "2964": 2.319589475519024e-06,
                "2996": 1.9149345007463126e-06,
                "3017": 2.199702794314362e-06,
                "302": 1.9439954940025927e-06,
                "3038": 2.1426749981401373e-06,
                "3059": 2.246712165288045e-06,
                "3080": 2.0817162749153795e-06,
                "3101": 2.171099754377792e-06,
                "3122": 1.954001027115737e-06,
                "3143": 2.2113580826044197e-06,
                "323": 2.299987136211712e-06,
                "344": 1.989960037462879e-06,
                "365": 1.9139327378070446e-06,
                "386": 2.151477315237571e-06,
                "407": 2.0879107523796846e-06,
                "428": 1.9305017758597386e-06,
                "463": 2.1419516087917147e-06,
                "484": 2.073352652587346e-06,
                "505": 2.112742390636413e-06,
                "526": 2.477998486938304e-06,
                "547": 2.181312333959795e-06,
                "568": 2.003757731472433e-06,
                "589": 1.9543252619769192e-06,
                "610": 2.1722813698943355e-06,
                "642": 2.2176036509335972e-06,
                "663": 1.8390483091934584e-06,
                "684": 2.260404539811134e-06,
                "705": 2.3417129341396504e-06,
                "726": 1.9256356381447403e-06,
                "747": 2.2654171971225877e-06,
                "768": 2.139619709851104e-06,
                "789": 2.1589082962236716e-06,
                "821": 2.2362083655025345e-06,
                "842": 2.1249030169201434e-06,
                "863": 2.048344890681619e-06,
                "884": 2.303946735082718e-06,
                "905": 2.1847456991963552e-06,
                "926": 2.3636710920982296e-06,
                "947": 2.331858786419616e-06,
                "968": 1.8579666402729345e-06,
                "NOBCID": 2.0994200716185173e-06
            },
            {
                "1017": 1.5327608590560704e-07,
                "102": 1.1688766449960323e-07,
                "1038": 1.641284388318429e-07,
                "1059": 1.131422625615053e-07,
                "1080": 1.9266744302005367e-07,
                "1101": 1.042231532000721e-07,
                "1122": 9.781167650789155e-08,
                "1143": 1.2841928622111336e-07,
                "1164": 5.6076507022152365e-08,
                "1196": 1.8423275283330906e-07,
                "1217": 1.2636477326918377e-07,
                "123": 1.1084319251571829e-07,
                "1238": 1.759238342612909e-07,
                "1259": 6.040666349638008e-08,
                "1280": 1.8816838410105882e-07,
                "1301": 1.260895882939777e-07,
                "1322": 1.7185952432730962e-07,
                "1343": 1.1202520037865583e-07,
                "1375": 1.429224200855543e-07,
                "1396": 1.346053042434222e-07,
                "1417": 1.7306358054675353e-07,
                "1438": 1.0332486215816154e-07,
                "144": 1.2643317158737766e-07,
                "1459": 1.4868175259258593e-07,
                "1480": 2.207269731655776e-07,
                "1501": 2.0729795706295558e-07,
                "1522": 7.778078162304231e-08,
                "1554": 8.638627271594026e-08,
                "1575": 1.178103851077696e-07,
                "1596": 1.301126606689244e-07,
                "1617": 8.544553495011086e-08,
                "1638": 1.1175468114237874e-07,
                "165": 9.389059068063421e-08,
                "1659": 1.5032185363038898e-07,
                "1680": 3.699519645790834e-08,
                "1701": 9.362724652553284e-08,
                "1733": 1.52243182006144e-07,
                "1754": 1.4190430158806793e-07,
                "1775": 9.765042671871673e-08,
                "1796": 1.489628575644588e-07,
                "1817": 1.0601248800869779e-07,
                "1838": 1.5799566190915937e-07,
                "1859": 1.367119605408146e-07,
                "186": 1.2191048055468962e-07,
                "1880": 1.986372518233642e-07,
                "1915": 1.8195453196815427e-07,
                "1936": 1.4608060351067213e-07,
                "1957": 8.367168158061355e-08,
                "1978": 8.801299818298081e-08,
                "1999": 1.2840986930249595e-07,
                "2020": 2.1665991563814244e-07,
                "2041": 1.7834969016281275e-07,
                "2062": 1.468337474453774e-07,
                "207": 1.422045884838221e-07,
                "2094": 1.0964631035966807e-07,
                "2115": 7.333977903153563e-08,
                "2136": 1.5478730733438288e-07,
                "2157": 1.1270783796841523e-07,
                "2178": 1.5092249036148307e-07,
                "2199": 7.87168270035299e-08,
                "2220": 1.3456086072940482e-07,
                "2241": 1.0577687416061149e-07,
                "2273": 1.241474076969488e-07,
                "228": 8.972084544407738e-08,
                "2294": 1.3052098301944867e-07,
                "2315": 1.7880285833235027e-07,
                "2336": 1.4135798768281284e-07,
                "2357": 2.054072457163821e-07,
                "2378": 1.313292119251867e-07,
                "2399": 3.4887433098633574e-08,
                "2420": 1.47507595258923e-07,
                "2452": 1.322474396410575e-07,
                "2473": 9.913736950035238e-08,
                "249": 1.07673246744904e-07,
                "2494": 1.3929979291638554e-07,
                "2515": 2.1777085115739308e-07,
                "2536": 1.1083306586967646e-07,
                "2557": 1.8332557232028014e-07,
                "2578": 1.5162787855257692e-07,
                "2599": 9.755555219616504e-08,
                "2631": 1.7535269414857765e-07,
                "2652": 2.1657697649037394e-07,
                "2673": 8.442999604229903e-08,
                "2694": 5.682639140573718e-08,
                "2715": 2.0110844496015208e-07,
                "2736": 1.2238268212580192e-07,
                "2757": 9.387096300759494e-08,
                "2778": 1.1547502915739417e-07,
                "281": 1.2250993052277946e-07,
                "2817": 9.287713764301307e-08,
                "2838": 1.1696151154268519e-07,
                "2859": 1.6091584269661384e-07,
                "2880": 1.274331464838432e-07,
                "2901": 1.167077350611749e-07,
                "2922": 1.807728807196115e-07,
                "2943": 1.6841792734836752e-07,
                "2964": 1.2301198963716606e-07,
                "2996": 1.0187652487151535e-07,
                "3017": 1.537607155451365e-07,
                "302": 1.2878424634708418e-07,
                "3038": 1.3262949083669207e-07,
                "3059": 1.0087924192154509e-07,
                "3080": 1.9001134712700333e-07,
                "3101": 2.207599220657257e-07,
                "3122": 5.340597155772859e-08,
                "3143": 1.557538084201976e-07,
                "323": 1.7813255383213416e-07,
                "344": 1.120748491604772e-07,
                "365": 1.1482795348946944e-07,
                "386": 1.3539017238467754e-07,
                "407": 1.256042272867118e-07,
                "428": 8.638174514166855e-08,
                "463": 1.2343257853736156e-07,
                "484": 1.6515400665705568e-07,
                "505": 1.8884138200262885e-07,
                "526": 6.43902164266207e-08,
                "547": 1.724917856837031e-07,
                "568": 1.068541775069672e-07,
                "589": 1.274925308745481e-07,
                "610": 1.1240504744238586e-07,
                "642": 1.3952583876504566e-07,
                "663": 1.929410303591615e-07,
                "684": 1.7325633103326056e-07,
                "705": 2.51697309941e-07,
                "726": 1.2725346522964702e-07,
                "747": 9.639368370314541e-08,
                "768": 1.509749216188844e-07,
                "789": 1.1101813624174835e-07,
                "821": 2.198756981026484e-07,
                "842": 9.598548068573288e-08,
                "863": 7.909181021884538e-08,
                "884": 1.3782793011437453e-07,
                "905": 1.377501015238698e-07,
                "926": 2.1090332676727025e-07,
                "947": 7.902320213178395e-08,
                "968": 1.1093624124303093e-07,
                "NOBCID": 1.3658026303862835e-07
            }
        ]
    }
}